%YAML 1.1
%TAG !u! tag:unity3d.com,2011:
--- !u!1 &5717121420776932007
GameObject:
  m_ObjectHideFlags: 0
  m_CorrespondingSourceObject: {fileID: 0}
  m_PrefabInstance: {fileID: 0}
  m_PrefabAsset: {fileID: 0}
  serializedVersion: 6
  m_Component:
  - component: {fileID: 6166504987099308757}
  - component: {fileID: 6289474973309778100}
  - component: {fileID: 3650679326850963401}
  m_Layer: 0
  m_Name: Building1
  m_TagString: Untagged
  m_Icon: {fileID: 0}
  m_NavMeshLayer: 0
  m_StaticEditorFlags: 4294967295
  m_IsActive: 1
--- !u!4 &6166504987099308757
Transform:
  m_ObjectHideFlags: 0
  m_CorrespondingSourceObject: {fileID: 0}
  m_PrefabInstance: {fileID: 0}
  m_PrefabAsset: {fileID: 0}
  m_GameObject: {fileID: 5717121420776932007}
  m_LocalRotation: {x: 0.26049232, y: -0.6573766, z: -0.6573764, w: -0.26049212}
  m_LocalPosition: {x: -3.53, y: -0.44, z: -8.87}
  m_LocalScale: {x: 150, y: 150, z: 150}
  m_Children: []
  m_Father: {fileID: 0}
  m_RootOrder: 0
  m_LocalEulerAnglesHint: {x: -90.00001, y: 0, z: -223.23299}
--- !u!33 &6289474973309778100
MeshFilter:
  m_ObjectHideFlags: 0
  m_CorrespondingSourceObject: {fileID: 0}
  m_PrefabInstance: {fileID: 0}
  m_PrefabAsset: {fileID: 0}
  m_GameObject: {fileID: 5717121420776932007}
  m_Mesh: {fileID: 4300000, guid: c034964186ba73843abf9c751bd0423a, type: 3}
--- !u!23 &3650679326850963401
MeshRenderer:
  m_ObjectHideFlags: 0
  m_CorrespondingSourceObject: {fileID: 0}
  m_PrefabInstance: {fileID: 0}
  m_PrefabAsset: {fileID: 0}
  m_GameObject: {fileID: 5717121420776932007}
  m_Enabled: 1
  m_CastShadows: 1
  m_ReceiveShadows: 1
  m_DynamicOccludee: 1
  m_MotionVectors: 1
  m_LightProbeUsage: 1
  m_ReflectionProbeUsage: 1
  m_RenderingLayerMask: 1
  m_RendererPriority: 0
  m_Materials:
  - {fileID: 2100000, guid: b600b659bd31c8d4a8fa16114dd45911, type: 2}
  - {fileID: 2100000, guid: b73f5ec2fcc399444b4d34a07b93490f, type: 2}
  - {fileID: 2100000, guid: 0a3493a84faf7a64ba93f872075b55ce, type: 2}
  - {fileID: 2100000, guid: c772e38b371afb048abe88c78ca74b44, type: 2}
  - {fileID: 2100000, guid: eb94cb058362c01429fcaa020bf92c13, type: 2}
  - {fileID: 2100000, guid: 1efe31d4d21c6c84eacc7718bb26f45d, type: 2}
  - {fileID: 2100000, guid: 4b0f4136bb2449e408adf68c6b9a04fd, type: 2}
  m_StaticBatchInfo:
    firstSubMesh: 0
    subMeshCount: 0
  m_StaticBatchRoot: {fileID: 0}
  m_ProbeAnchor: {fileID: 0}
  m_LightProbeVolumeOverride: {fileID: 0}
  m_ScaleInLightmap: 1
  m_PreserveUVs: 0
  m_IgnoreNormalsForChartDetection: 0
  m_ImportantGI: 0
  m_StitchLightmapSeams: 0
  m_SelectedEditorRenderState: 3
  m_MinimumChartSize: 4
  m_AutoUVMaxDistance: 0.5
  m_AutoUVMaxAngle: 89
  m_LightmapParameters: {fileID: 0}
  m_SortingLayerID: 0
  m_SortingLayer: 0
  m_SortingOrder: 0
