%YAML 1.1
%TAG !u! tag:unity3d.com,2011:
--- !u!1 &8356908135908535438
GameObject:
  m_ObjectHideFlags: 0
  m_CorrespondingSourceObject: {fileID: 0}
  m_PrefabInstance: {fileID: 0}
  m_PrefabAsset: {fileID: 0}
  serializedVersion: 6
  m_Component:
  - component: {fileID: 6166504987806332094}
  - component: {fileID: 9078408085742586557}
  - component: {fileID: 5395914154826409115}
  m_Layer: 0
  m_Name: Building7
  m_TagString: Untagged
  m_Icon: {fileID: 0}
  m_NavMeshLayer: 0
  m_StaticEditorFlags: 4294967295
  m_IsActive: 1
--- !u!4 &6166504987806332094
Transform:
  m_ObjectHideFlags: 0
  m_CorrespondingSourceObject: {fileID: 0}
  m_PrefabInstance: {fileID: 0}
  m_PrefabAsset: {fileID: 0}
  m_GameObject: {fileID: 8356908135908535438}
  m_LocalRotation: {x: -0.38108358, y: 0.5956302, z: 0.5956302, w: 0.38108355}
  m_LocalPosition: {x: 7.9954376, y: -0.44362164, z: 26.900612}
  m_LocalScale: {x: 150.00009, y: 150.00006, z: 150.00006}
  m_Children: []
  m_Father: {fileID: 0}
  m_RootOrder: 0
  m_LocalEulerAnglesHint: {x: -90.00001, y: 0, z: 114.77801}
--- !u!33 &9078408085742586557
MeshFilter:
  m_ObjectHideFlags: 0
  m_CorrespondingSourceObject: {fileID: 0}
  m_PrefabInstance: {fileID: 0}
  m_PrefabAsset: {fileID: 0}
  m_GameObject: {fileID: 8356908135908535438}
  m_Mesh: {fileID: 4300000, guid: 7173c2ccddc9b8b45b46f613abf5018c, type: 3}
--- !u!23 &5395914154826409115
MeshRenderer:
  m_ObjectHideFlags: 0
  m_CorrespondingSourceObject: {fileID: 0}
  m_PrefabInstance: {fileID: 0}
  m_PrefabAsset: {fileID: 0}
  m_GameObject: {fileID: 8356908135908535438}
  m_Enabled: 1
  m_CastShadows: 1
  m_ReceiveShadows: 1
  m_DynamicOccludee: 1
  m_MotionVectors: 1
  m_LightProbeUsage: 1
  m_ReflectionProbeUsage: 1
  m_RenderingLayerMask: 1
  m_RendererPriority: 0
  m_Materials:
  - {fileID: 2100000, guid: 5db5ca2c22ea2a442ab42aa1f4205eb4, type: 2}
  - {fileID: 2100000, guid: eb94cb058362c01429fcaa020bf92c13, type: 2}
  - {fileID: 2100000, guid: 0a3493a84faf7a64ba93f872075b55ce, type: 2}
  - {fileID: 2100000, guid: b73f5ec2fcc399444b4d34a07b93490f, type: 2}
  - {fileID: 2100000, guid: 1efe31d4d21c6c84eacc7718bb26f45d, type: 2}
  m_StaticBatchInfo:
    firstSubMesh: 0
    subMeshCount: 0
  m_StaticBatchRoot: {fileID: 0}
  m_ProbeAnchor: {fileID: 0}
  m_LightProbeVolumeOverride: {fileID: 0}
  m_ScaleInLightmap: 1
  m_PreserveUVs: 0
  m_IgnoreNormalsForChartDetection: 0
  m_ImportantGI: 0
  m_StitchLightmapSeams: 0
  m_SelectedEditorRenderState: 3
  m_MinimumChartSize: 4
  m_AutoUVMaxDistance: 0.5
  m_AutoUVMaxAngle: 89
  m_LightmapParameters: {fileID: 0}
  m_SortingLayerID: 0
  m_SortingLayer: 0
  m_SortingOrder: 0
